Find historical catch data from previous years — get_catch_haul_history • GAPsurvey
…
# EBS (or NBS) ------------------------------------
# for one year and only 1 station
get_catch_haul_history(
     survey = "EBS",
     years = 2021,
     station = "I-13")
#> $catch
#> $catch$`2021`
#> # A tibble: 35 x 6
#>    station scientific_name                 count weight_kg cpue_kgha cpue_noha
#>    <chr>   <chr>                           <dbl>     <dbl>     <dbl>     <dbl>
#>  1 I-13    Gadus chalcogrammus               793     550.     115.      166.  
#>  2 I-13    Lepidopsetta polyxystra          1530     214.      44.8     321.  
#>  3 I-13    Limanda aspera                    584     140.      29.2     122.  
#>  4 I-13    Asterias amurensis               1816     127.      26.6     380.  
#>  5 I-13    Bathyraja parmifera                 6      42.0      8.79      1.26
#>  6 I-13    Gadus macrocephalus                91      31.1      6.52     19.1 
#>  7 I-13    Hippoglossus stenolepis            45      26.1      5.47      9.43
#>  8 I-13    Hippoglossoides elassodon          48      23.8      4.99     10.1 
#>  9 I-13    Paralithodes camtschaticus         18      19.4      4.06      3.77
#> 10 I-13    Pleuronectes quadrituberculatus    47      16.9      3.55      9.85
#> # ... with 25 more rows
…
#>    year  haul station stratum vessel_name   vessel_id date_time      latitude_dd
#>   <dbl> <dbl> <chr>     <dbl> <chr>             <dbl> <chr>                <dbl>
#> 1  2021     7 I-13         31 Alaska Knight       162 06/02/2021 12~        57.7
#> # ... with 9 more variables: longitude_dd <dbl>, bottom_temperature_c <dbl>,
#> #   surface_temperature_c <dbl>, depth_m <dbl>, distance_fished_km <dbl>,
#> #   net_width_m <dbl>, net_height_m <dbl>, area_swept_ha <dbl>,
#> #   duration_hr <dbl>
#> 
# for default 10 years and only 1 station
get_catch_haul_history(
      survey = "EBS",
      station = "I-13")
#> $catch
#> $catch$`2011`
#> # A tibble: 31 x 6
#>    station scientific_name            count weight_kg cpue_kgha cpue_noha
#>    <chr>   <chr>                      <dbl>     <dbl>     <dbl>     <dbl>
#>  1 I-13    Lepidopsetta polyxystra     5596   1112.      252.     1268.  
#>  2 I-13    Asterias amurensis           942    337.       76.3     213.  
#>  3 I-13    Limanda aspera               908    192.       43.4     206.  
#>  4 I-13    Hippoglossus stenolepis       54     57.1      12.9      12.2 
#>  5 I-13    Boltenia ovifera               0     43.3       9.81     NA   
#>  6 I-13    Chrysaora melanaster          46     43.2       9.79     10.4 
#>  7 I-13    Paralithodes camtschaticus    31     37.9       8.58      7.02
#>  8 I-13    Gadus macrocephalus           39     23.5       5.33      8.84
#>  9 I-13    Platichthys stellatus         13     19.2       4.36      2.95
#> 10 I-13    Hippoglossoides elassodon     23      9.33      2.11      5.21
#> # ... with 21 more rows
#> 
#> $catch$`2012`
#> # A tibble: 32 x 6
#>    station scientific_name                 count weight_kg cpue_kgha cpue_noha
#>    <chr>   <chr>                           <dbl>     <dbl>     <dbl>     <dbl>
#>  1 I-13    Chrysaora melanaster              330    406.      124.      100.  
#>  2 I-13    Limanda aspera                    678    162.       49.3     206.  
#>  3 I-13    Lepidopsetta polyxystra           653    151.       46.0     199.  
#>  4 I-13    Asterias amurensis                171     71.3      21.7      52.0 
#>  5 I-13    Gadus macrocephalus               149     25.1       7.64     45.3 
#>  6 I-13    Pleuronectes quadrituberculatus    48     23.8       7.24     14.6 
#>  7 I-13    Platichthys stellatus              21     22.4       6.81      6.39
#>  8 I-13    Hippoglossus stenolepis             7     17.7       5.40      2.13
#>  9 I-13    Boltenia ovifera                    0     16.9       5.13     NA   
#> 10 I-13    Paralithodes camtschaticus          4      6.19      1.88      1.22
#> # ... with 22 more rows
#> 
#> $catch$`2013`
#> # A tibble: 29 x 6
#>    station scientific_name                 count weight_kg cpue_kgha cpue_noha
#>    <chr>   <chr>                           <dbl>     <dbl>     <dbl>     <dbl>
#>  1 I-13    Lepidopsetta polyxystra          3788     922.     213.      875.  
#>  2 I-13    Asterias amurensis               1346     445.     103.      311.  
#>  3 I-13    Limanda aspera                   1148     303.      70.0     265.  
#>  4 I-13    Chrysaora melanaster              262     131.      30.3      60.5 
#>  5 I-13    Paralithodes camtschaticus         85     121.      28.0      19.6 
#>  6 I-13    Gadus chalcogrammus                20      49.2     11.4       4.62
#>  7 I-13    Pleuronectes quadrituberculatus    44      39.5      9.12     10.2 
#>  8 I-13    Gadus macrocephalus                68      30.7      7.09     15.7 
#>  9 I-13    Hippoglossus stenolepis            22      25.3      5.84      5.08
#> 10 I-13    Boltenia ovifera                    0      19.7      4.56     NA   
#> # ... with 19 more rows
#> 
#> $catch$`2014`
#> # A tibble: 44 x 6
#>    station scientific_name                 count weight_kg cpue_kgha cpue_noha
#>    <chr>   <chr>                           <dbl>     <dbl>     <dbl>     <dbl>
#>  1 I-13    Lepidopsetta polyxystra          1791     597.     143.      430.  
#>  2 I-13    Limanda aspera                    879     309.      74.4     211.  
#>  3 I-13    Pleuronectes quadrituberculatus   103     147.      35.2      24.8 
#>  4 I-13    Asterias amurensis                792     133.      31.9     190.  
#>  5 I-13    Gadus macrocephalus               138      54.4     13.1      33.2 
#>  6 I-13    Gadus chalcogrammus                65      41.5      9.98     15.6 
#>  7 I-13    Paralithodes camtschaticus         24      37.4      8.98      5.77
#>  8 I-13    Platichthys stellatus              15      25.3      6.09      3.61
#>  9 I-13    Myoxocephalus jaok                 37      24.2      5.82      8.89
#> 10 I-13    Hippoglossus stenolepis             7      18.4      4.42      1.68
#> # ... with 34 more rows
#> 
#> $catch$`2015`
#> # A tibble: 30 x 6
#>    station scientific_name                 count weight_kg cpue_kgha cpue_noha
#>    <chr>   <chr>                           <dbl>     <dbl>     <dbl>     <dbl>
#>  1 I-13    Lepidopsetta polyxystra          6374    1760.     366.     1325.  
#>  2 I-13    Gadus macrocephalus               827     443.      92.0     172.  
#>  3 I-13    Gadus chalcogrammus               363     377.      78.3      75.4 
#>  4 I-13    Limanda aspera                    624     189.      39.3     130.  
#>  5 I-13    Pleuronectes quadrituberculatus    54      73.1     15.2      11.2 
#>  6 I-13    Asterias amurensis                251      51.3     10.7      52.2 
#>  7 I-13    Bathyraja parmifera                 8      44.6      9.27      1.66
#>  8 I-13    Paralithodes camtschaticus         13      24.5      5.08      2.70
#>  9 I-13    Pagurus ochotensis                 78      11.1      2.32     16.2 
#> 10 I-13    Hippoglossoides elassodon          21      10.1      2.10      4.36
#> # ... with 20 more rows
…
#>  8 I-13    Atheresthes stomias                  28    13.0      2.80       6.02 
#>  9 I-13    Pleuronectes quadrituberculatus      18     9.76     2.10       3.87 
#> 10 I-13    Hippoglossus stenolepis               7     8.73     1.88       1.50 
#> 11 I-13    Gadus chalcogrammus                  37     7.04     1.51       7.95 
#> 12 I-13    Hippoglossoides elassodon             9     5.08     1.09       1.93 
#> 13 I-13    Chionoecetes bairdi                   7     4.7      1.01       1.50 
#> 14 I-13    Boltenia ovifera                      0     3.76     0.808     NA    
#> 15 I-13    Podothecus accipenserinus            28     2.37     0.508      6.02 
#> 16 I-13    Myoxocephalus polyacanthocephalus     1     1.2      0.258      0.215
#> 17 I-13    Hyas coarctatus                       9     1.12     0.240      1.93 
#> 18 I-13    NA                                    0     0.403    0.0866    NA    
#> 19 I-13    Porifera                              0     0.348    0.0748    NA    
#> 
#> $catch$`2017`
#> # A tibble: 29 x 6
#>    station scientific_name            count weight_kg cpue_kgha cpue_noha
#>    <chr>   <chr>                      <dbl>     <dbl>     <dbl>     <dbl>
#>  1 I-13    Lepidopsetta polyxystra     2435     759.     174.     556.   
#>  2 I-13    Asterias amurensis          2034     205.      46.8    465.   
#>  3 I-13    Limanda aspera               319     123.      28.1     72.9  
#>  4 I-13    Gadus chalcogrammus          139      57.1     13.0     31.8  
#>  5 I-13    Bathyraja parmifera            4      33.5      7.65     0.914
#>  6 I-13    Hippoglossus stenolepis       19      26.4      6.03     4.34 
#>  7 I-13    Hippoglossoides elassodon     42      22.1      5.05     9.60 
#>  8 I-13    Platichthys stellatus          9      12.5      2.86     2.06 
#>  9 I-13    Paralithodes camtschaticus     5      12.2      2.80     1.14 
#> 10 I-13    Gadus macrocephalus           13       9.8      2.24     2.97 
#> # ... with 19 more rows
#> 
#> $catch$`2018`
#> # A tibble: 36 x 6
#>    station scientific_name            count weight_kg cpue_kgha cpue_noha
#>    <chr>   <chr>                      <dbl>     <dbl>     <dbl>     <dbl>
#>  1 I-13    Lepidopsetta polyxystra     1243    325.       68.4    262.   
#>  2 I-13    Limanda aspera               849    271.       57.1    179.   
#>  3 I-13    Asterias amurensis           941     88.8      18.7    198.   
#>  4 I-13    Gadus chalcogrammus           95     80.0      16.9     20.0  
#>  5 I-13    Paralithodes camtschaticus    18     24.3       5.11     3.79 
#>  6 I-13    Aplidium sp.                   0     16.6       3.50    NA    
#>  7 I-13    Boltenia ovifera               0     13.9       2.92    NA    
#>  8 I-13    Bathyraja parmifera            3     12.9       2.72     0.632
#>  9 I-13    Hippoglossoides elassodon     23     10.9       2.29     4.84 
#> 10 I-13    Gorgonocephalus eucnemis      21      5.60      1.18     4.42 
#> # ... with 26 more rows
#> 
#> $catch$`2019`
#> # A tibble: 28 x 6
#>    station scientific_name                 count weight_kg cpue_kgha cpue_noha
#>    <chr>   <chr>                           <dbl>     <dbl>     <dbl>     <dbl>
#>  1 I-13    Lepidopsetta polyxystra          7626    1483.     326.     1675.  
#>  2 I-13    Limanda aspera                   3116    1006.     221.      684.  
#>  3 I-13    Asterias amurensis               3032     352.      77.3     666.  
#>  4 I-13    Bathyraja parmifera                37     173.      38.0       8.13
#>  5 I-13    Gadus macrocephalus               118      43.1      9.46     25.9 
#>  6 I-13    Myoxocephalus jaok                 26      21.7      4.77      5.71
#>  7 I-13    Platichthys stellatus              16      20.4      4.49      3.51
#>  8 I-13    Pleuronectes quadrituberculatus    39      16.5      3.63      8.57
#>  9 I-13    Hippoglossus stenolepis            15      13.0      2.85      3.30
#> 10 I-13    Hippoglossoides elassodon          20      10.9      2.40      4.39
#> # ... with 18 more rows
#> 
#> $catch$`2021`
#> # A tibble: 35 x 6
#>    station scientific_name                 count weight_kg cpue_kgha cpue_noha
#>    <chr>   <chr>                           <dbl>     <dbl>     <dbl>     <dbl>
#>  1 I-13    Gadus chalcogrammus               793     550.     115.      166.  
#>  2 I-13    Lepidopsetta polyxystra          1530     214.      44.8     321.  
#>  3 I-13    Limanda aspera                    584     140.      29.2     122.  
#>  4 I-13    Asterias amurensis               1816     127.      26.6     380.  
#>  5 I-13    Bathyraja parmifera                 6      42.0      8.79      1.26
#>  6 I-13    Gadus macrocephalus                91      31.1      6.52     19.1 
#>  7 I-13    Hippoglossus stenolepis            45      26.1      5.47      9.43
#>  8 I-13    Hippoglossoides elassodon          48      23.8      4.99     10.1 
#>  9 I-13    Paralithodes camtschaticus         18      19.4      4.06      3.77
#> 10 I-13    Pleuronectes quadrituberculatus    47      16.9      3.55      9.85
#> # ... with 25 more rows
…
